EDA_peer.knit
…
From the histogram we have observed presence of right skewness in the dataset. There is a large number oh houses younger than 40 years.

2 

The mantra in real estate is Location, Location, Location! Make a graphical display that relates a home price to its neighborhood in Ames, Iowa. Which summary statistics are most appropriate to use for determining the most expensive, least expensive, and most heterogeneous (having the most variation in housing price) neighborhoods? Report which neighborhoods these are based on the summary statistics of your choice. Report the value of your chosen summary statistics for these neighborhoods.

# type your code for Question 2 here, and Knit
ames_train %>%
  group_by(Neighborhood) %>%
  summarise(Std = sd(price), least_expensive = min(price),
            max_expensive = max(price)) %>%
            arrange(desc(Std))

## # A tibble: 27 x 4
##    Neighborhood     Std least_expensive max_expensive
##    <fct>          <dbl>           <int>         <int>
##  1 StoneBr      123459.          180000        591587
##  2 NridgHt      105089.          173000        615000
##  3 Timber        84030.          175000        425000
##  4 Veenker       72545.          150000        385000
##  5 Crawfor       71268.           96500        392500
##  6 GrnHill       70711.          230000        330000
##  7 Somerst       65199.          139000        468000
##  8 Edwards       54852.           61500        415000
##  9 CollgCr       52786.          110000        475000
## 10 SawyerW       48354.           67500        320000
## # ... with 17 more rows

ames_train %>%
  group_by(Neighborhood) %>%
  summarise(Std = sd(price), least_expensive = min(price),
            max_expensive = max(price)) %>%
            arrange(desc(least_expensive))

## # A tibble: 27 x 4
##    Neighborhood     Std least_expensive max_expensive
##    <fct>          <dbl>           <int>         <int>
##  1 NoRidge       35889.          235000        405000
##  2 GrnHill       70711.          230000        330000
##  3 StoneBr      123459.          180000        591587
##  4 Timber        84030.          175000        425000
##  5 NridgHt      105089.          173000        615000
##  6 Blmngtn       26455.          172500        246990
##  7 Greens        29063.          155000        214000
##  8 Veenker       72545.          150000        385000
##  9 Somerst       65199.          139000        468000
## 10 Gilbert       41190.          133000        377500
## # ... with 17 more rows

ames_train %>%
  group_by(Neighborhood) %>%
  summarise(Std = sd(price), least_expensive = min(price),
            max_expensive = max(price)) %>%
            arrange(desc(max_expensive))

## # A tibble: 27 x 4
##    Neighborhood     Std least_expensive max_expensive
##    <fct>          <dbl>           <int>         <int>
##  1 NridgHt      105089.          173000        615000
##  2 StoneBr      123459.          180000        591587
##  3 CollgCr       52786.          110000        475000
##  4 Somerst       65199.          139000        468000
##  5 Timber        84030.          175000        425000
##  6 Edwards       54852.           61500        415000
##  7 NoRidge       35889.          235000        405000
##  8 Crawfor       71268.           96500        392500
##  9 Veenker       72545.          150000        385000
## 10 Gilbert       41190.          133000        377500
## # ... with 17 more rows
…
